Data Analysis Portfolio: Kai Chen - Module 10 Exercise: Flu Analysis Modeling Workflow
…
# Fitting/Training
logistic_fit <- logistic_workflow %>%
  fit(data = train_data)

Model 1 Evaluation

Prediction + ROC Curve

# Training Data
predict(logistic_fit, train_data)

Warning in predict.lm(object, newdata, se.fit, scale = 1, type = if (type == :
prediction from a rank-deficient fit may be misleading

# A tibble: 547 × 1
   .pred_class
   <fct>      
 1 No         
 2 No         
 3 No         
 4 No         
 5 No         
 6 No         
 7 No         
 8 No         
 9 Yes        
10 No         
# … with 537 more rows
…
# A tibble: 1 × 3
  .metric .estimator .estimate
  <chr>   <chr>          <dbl>
1 roc_auc binary         0.796

# Test Data
predict(logistic_fit, test_data)

Warning in predict.lm(object, newdata, se.fit, scale = 1, type = if (type == :
prediction from a rank-deficient fit may be misleading

# A tibble: 183 × 1
   .pred_class
   <fct>      
 1 Yes        
 2 No         
 3 No         
 4 Yes        
 5 No         
 6 Yes        
 7 No         
 8 Yes        
 9 No         
10 No         
# … with 173 more rows
…
# Specifying Workflow
new_logistic_workflow <- workflow() %>% 
  add_model(logistic_regression_model) %>%
  add_recipe(new_flu_recipe)

# Fitting/Training
new_logistic_fit <- new_logistic_workflow %>%
  fit(data = train_data)

Alternative Model Evaluation

# Training Data
predict(new_logistic_fit, train_data)

# A tibble: 547 × 1
   .pred_class
   <fct>      
 1 No         
 2 No         
 3 No         
 4 No         
 5 No         
 6 No         
 7 No         
 8 No         
 9 No         
10 No         
# … with 537 more rows
…
## Calculate ROC-AUC
new_train_augment %>%
  roc_auc(truth = Nausea, .pred_No)

# A tibble: 1 × 3
  .metric .estimator .estimate
  <chr>   <chr>          <dbl>
1 roc_auc binary         0.515

# Test Data
predict(new_logistic_fit, test_data)

# A tibble: 183 × 1
   .pred_class
   <fct>      
 1 No         
 2 No         
 3 No         
 4 No         
 5 No         
 6 No         
 7 No         
 8 No         
 9 No         
10 No         
# … with 173 more rows
…
### Create workflow
flu_wflowc1 <- workflow() %>%
  add_model(lin_modc1) %>%
  add_recipe(flu_recipec1)

### Prepare the recipe and train the model
flu_fitc1 <- flu_wflowc1 %>%
  fit(data = train_datac1)

### Tidy output
flu_fitc1 %>%
  extract_fit_parsnip() %>%
  tidy()

# A tibble: 38 × 5
   term                 estimate std.error statistic  p.value
   <chr>                   <dbl>     <dbl>     <dbl>    <dbl>
 1 (Intercept)           98.2        0.351   280.    0       
 2 SwollenLymphNodesYes  -0.100      0.109    -0.923 0.356   
 3 ChestCongestionYes     0.0519     0.117     0.441 0.659   
 4 ChillsSweatsYes        0.163      0.151     1.08  0.282   
 5 NasalCongestionYes    -0.239      0.132    -1.82  0.0698  
 6 CoughYNYes             0.141      0.271     0.522 0.602   
 7 SneezeYes             -0.310      0.116    -2.67  0.00784 
 8 FatigueYes             0.197      0.185     1.06  0.288   
 9 SubjectiveFeverYes     0.476      0.124     3.83  0.000147
10 HeadacheYes            0.0282     0.151     0.187 0.852   
# … with 28 more rows

### Prediction
predict(flu_fitc1, test_datac1)

Warning in predict.lm(object = object$fit, newdata = new_data, type =
"response"): prediction from a rank-deficient fit may be misleading

# A tibble: 183 × 1
   .pred
   <dbl>
 1  99.6
 2  99.8
 3  99.8
 4  98.4
 5  98.7
 6  98.6
 7  98.9
 8  99.0
 9  99.7
10  99.3
# … with 173 more rows

### Augment
flu_augc1 <- augment(flu_fitc1, test_datac1)

Warning in predict.lm(object = object$fit, newdata = new_data, type =
"response"): prediction from a rank-deficient fit may be misleading

### Looks like
flu_augc1 %>%
  select(BodyTemp, .pred)

# A tibble: 183 × 2
   BodyTemp .pred
      <dbl> <dbl>
 1    100.   99.6
 2     98.2  99.8
 3     97.9  99.8
 4     98.1  98.4
 5     99.2  98.7
 6     98.1  98.6
 7     98.5  98.9
 8    100.   99.0
 9     98.9  99.7
10     98.8  99.3
# … with 173 more rows
…
### Tidy output2
flu_fitc2 %>%
  extract_fit_parsnip() %>%
  tidy()

# A tibble: 2 × 5
  term         estimate std.error statistic p.value
  <chr>           <dbl>     <dbl>     <dbl>   <dbl>
1 (Intercept)    99.2      0.0968   1024.   0      
2 RunnyNoseYes   -0.366    0.114      -3.21 0.00139

### Prediction2
predict(flu_fitc2, test_datac1)

# A tibble: 183 × 1
   .pred
   <dbl>
 1  99.2
 2  99.2
 3  99.2
 4  98.8
 5  98.8
 6  98.8
 7  98.8
 8  98.8
 9  99.2
10  99.2
# … with 173 more rows

### Augment2
flu_augc2 <- augment(flu_fitc2, test_datac1)

### Looks like2
flu_augc2 %>%
  select(BodyTemp, .pred)

# A tibble: 183 × 2
   BodyTemp .pred
      <dbl> <dbl>
 1    100.   99.2
 2     98.2  99.2
 3     97.9  99.2
 4     98.1  98.8
 5     99.2  98.8
 6     98.1  98.8
 7     98.5  98.8
 8    100.   98.8
 9     98.9  99.2
10     98.8  99.2
# … with 173 more rows
…
