Data Analysis Portfolio: Kai Chen - Tidy Tuesday Exercise 2
…
# A tibble: 1 × 3
  .metric .estimator  .estimate
  <chr>   <chr>           <dbl>
1 rmse    standard   133763971.

## RMSE: 133763971

# Tree Model
tree_tuned <- tree_workflow %>%
  tune_grid(resamples = post_cv, grid = tree_grid)
tree_tuned %>% collect_metrics()

# A tibble: 50 × 8
   cost_complexity tree_depth .metric .estimator      mean     n std_err .config
             <dbl>      <int> <chr>   <chr>          <dbl> <int>   <dbl> <chr>  
 1    0.0000000001          1 rmse    standard     3.96e+8    10 1.27e+7 Prepro…
 2    0.0000000001          1 rsq     standard     9.81e-1    10 4.79e-3 Prepro…
 3    0.0000000178          1 rmse    standard     3.96e+8    10 1.27e+7 Prepro…
 4    0.0000000178          1 rsq     standard     9.81e-1    10 4.79e-3 Prepro…
 5    0.00000316            1 rmse    standard     3.96e+8    10 1.27e+7 Prepro…
 6    0.00000316            1 rsq     standard     9.81e-1    10 4.79e-3 Prepro…
 7    0.000562              1 rmse    standard     3.96e+8    10 1.27e+7 Prepro…
 8    0.000562              1 rsq     standard     9.81e-1    10 4.79e-3 Prepro…
 9    0.1                   1 rmse    standard     3.96e+8    10 1.27e+7 Prepro…
10    0.1                   1 rsq     standard     9.81e-1    10 4.79e-3 Prepro…
# ℹ 40 more rows
…
best_random_forest <- random_forest_tuned %>% select_best(metric = "rmse")

## RMSE: 150855368

# LASSO
lasso_tuned <- lasso_workflow %>% 
  tune_grid(resamples = post_cv, 
            grid = lasso_grid, 
            control = control_grid(verbose = FALSE, save_pred = TRUE),
            metrics = metric_set(rmse))

lasso_tuned %>% collect_metrics()

# A tibble: 30 × 7
    penalty .metric .estimator       mean     n   std_err .config              
      <dbl> <chr>   <chr>           <dbl> <int>     <dbl> <chr>                
 1 0.0001   rmse    standard   127279088.    10 18202748. Preprocessor1_Model01
 2 0.000127 rmse    standard   127279088.    10 18202748. Preprocessor1_Model02
 3 0.000161 rmse    standard   127279088.    10 18202748. Preprocessor1_Model03
 4 0.000204 rmse    standard   127279088.    10 18202748. Preprocessor1_Model04
 5 0.000259 rmse    standard   127279088.    10 18202748. Preprocessor1_Model05
 6 0.000329 rmse    standard   127279088.    10 18202748. Preprocessor1_Model06
 7 0.000418 rmse    standard   127279088.    10 18202748. Preprocessor1_Model07
 8 0.000530 rmse    standard   127279088.    10 18202748. Preprocessor1_Model08
 9 0.000672 rmse    standard   127279088.    10 18202748. Preprocessor1_Model09
10 0.000853 rmse    standard   127279088.    10 18202748. Preprocessor1_Model10
# ℹ 20 more rows
…
